{
'reg':               'SESA',
'seas':              ['Sep', 'Oct', 'Nov', 'Dec', 'Jan', 'Feb'],
'sres':              'rcp45',
'bfactor':           0.9,
'simlen':           39,
'locate':         2031,
'nnn':               5,
'rngSeed':           0,
'xval':              True,
'trendMethod':       'Linear',
'scale':             True,
'perPrChange':       0.05,     # Not relevant for SESA using bfactor
'dirname':           'output/SESA',
'outputAppend':      '_TS3.20_WA_',
'write':             True,
'simix':          1000,
'latLower':        -40,
'latUpper':        -25,
'lonLower':        -65,
'lonUpper':        -45,

'dt':                ['SESAPrecip', 'MMM', 'MMM'],
'obsStartYear':   1951,
'obsEndYear':     2011,
'mths':              'SONDJF',
'nEOFs':            20,
'nPCs':             15,
'nSamples':      10000,
'nYears':           10,
'prPercentile':      5,     # Not relevant for SESA; used for testing
'prEpsilon':         0.04,
'tempEpsilon':       0.1,

'rawPrFile':                   'cdf_nc/CRU/cru_ts3.20.1901.2011.pre.SESA.nc',
'rawTmaxFile':                 'cdf_nc/CRU/cru_ts3.20.1901.2011.tmx.SESA.nc',
'rawTminFile':                 'cdf_nc/CRU/cru_ts3.20.1901.2011.tmn.SESA.nc',

'prTmpRegFile':                'dat/prhat_tmmm_mmda_SONDJF.dat',
'prOzoneRegFile':              'dat/prhat_O3_mmda_SONDJF.dat',
'tmmmFile':                    'pickled/cmip5/tasav_cmip5_comb_sm_1901-2095.p',

'prSmoothedFile':              'dat/WAtrend.txt', # Testing purposes only
'prForcedFile':                'dat/SESAprforced.txt',

'totalGriddedObsFile':         'processed/SESA/pr-ma-mi_SESA_SEAS_mmda.p',
'totalGriddedDetrendedObsFile':'processed/SESA/pr-ma-mi_dt_SESA_SEAS_mmda.p',
'totalYearlyObsFile':          'processed/SESA/datSESAav_SEAS.dat',
'totalYearlyDetrendedObsFile': 'processed/SESA/datSESAavdt_SEAS.dat',
'prAllMosFile':                'processed/SESA/prTS3.20_SESA_allmos.cdf',
'tmaxAllMosFile':              'processed/SESA/tmxTS3.20_SESA_allmos.cdf',
'tminAllMosFile':              'processed/SESA/tmnTS3.20_SESA_allmos.cdf',
'prClimDicFile':               'processed/SESA/prTS3.20_SESA_climdic.p',
'tmaxClimDicFile':             'processed/SESA/tmxTS3.20_SESA_climdic.p',
'tminClimDicFile':             'processed/SESA/tmnTS3.20_SESA_climdic.p',
'yearsFile':                   'processed/SESA/years.p',
'latlonGridFile':              'processed/SESA/latlon_SESA.p',
'pcsFile':                     'processed/SESA/pcs_file_SESA.dat',
'eofsFile':                    'processed/SESA/eof_file_SESA.p',
'candidatesFile':              'processed/SESA/candidates.p',
'rModelFile':                  'processed/SESA/RModel.p',
'simulatedDataFile':           'processed/SESA/simulatedData.p',

}
